system.h:21:28:local_irq_save	0	static
system.h:29:28:local_irq_enable	0	static
system.h:37:28:local_irq_disable	0	static
system.h:45:28:__stf	0	static
system.h:53:28:__clf	0	static
system.h:61:28:local_save_flags	0	static
system.h:69:28:local_irq_restore	0	static
de_wb.c:438:5:wb_ebios_update_regs	0	static
de_wb.c:443:5:wb_ebios_writeback_enable	0	static
de_wb.c:448:5:wb_ebios_apply	0	static
de_wb.c:453:5:wb_ebios_get_status	0	static
de_wb.c:458:5:wb_ebios_init	0	static
