sunxi_mmc_host_tm5.c:44:12:mmc_init_default_timing_para	0	static
sunxi_mmc_host_tm5.c:98:13:sunxi_mmc_clk_io_onoff	0	static
sunxi_mmc_host_tm5.c:317:13:mmc_ddr_mode_onoff	0	static
sunxi_mmc_host_tm5.c:379:13:sunxi_mmc_core_init	32	static
sunxi_mmc_host_tm5.c:203:12:mmc_set_mod_clk	48	static
sunxi_mmc_host_tm5.c:363:13:sunxi_mmc_set_speed_mode	16	static
system.h:21:28:local_irq_save	0	static
system.h:29:28:local_irq_enable	0	static
system.h:37:28:local_irq_disable	0	static
system.h:45:28:__stf	0	static
system.h:53:28:__clf	0	static
system.h:61:28:local_save_flags	0	static
system.h:69:28:local_irq_restore	0	static
sunxi_mmc_host_tm5.c:400:6:sunxi_mmc_host_tm5_init	0	static
