gpt.c:95:14:extract_val	80	static
gpt.c:36:12:extract_env	80	static
gpt.c:372:12:set_gpt_info.isra.0.constprop	192	static
gpt.c:816:12:do_gpt	160	dynamic
system.h:21:28:local_irq_save	0	static
system.h:29:28:local_irq_enable	0	static
system.h:37:28:local_irq_disable	0	static
system.h:45:28:__stf	0	static
system.h:53:28:__clf	0	static
system.h:61:28:local_save_flags	0	static
system.h:69:28:local_irq_restore	0	static
