system.h:21:28:local_irq_save	0	static
system.h:29:28:local_irq_enable	0	static
system.h:37:28:local_irq_disable	0	static
system.h:45:28:__stf	0	static
system.h:53:28:__clf	0	static
system.h:61:28:local_save_flags	0	static
system.h:69:28:local_irq_restore	0	static
sunxi_flash.c:79:5:do_sunxi_flash_boot0	48	static
sunxi_flash.c:145:5:do_sunxi_flash	208	static
