system.h:21:28:local_irq_save	0	static
system.h:29:28:local_irq_enable	0	static
system.h:37:28:local_irq_disable	0	static
system.h:45:28:__stf	0	static
system.h:53:28:__clf	0	static
system.h:61:28:local_save_flags	0	static
system.h:69:28:local_irq_restore	0	static
nand_for_uboot.c:58:27:NAND_UbootInit	16	static
nand_for_uboot.c:64:27:NAND_UbootToPhy	16	static
nand_for_uboot.c:70:27:NAND_UbootExit	16	static
nand_for_uboot.c:76:28:NAND_UbootRead_History	16	static
nand_for_uboot.c:83:28:NAND_UbootRead	16	static
nand_for_uboot.c:90:28:NAND_UbootWrite	16	static
nand_for_uboot.c:97:27:NAND_BurnBoot0	16	static
nand_for_uboot.c:104:27:NAND_BurnUboot	16	static
nand_for_uboot.c:111:27:NAND_ReadBoot0	16	static
nand_for_uboot.c:118:27:NAND_PhyInit	16	static
nand_for_uboot.c:124:27:NAND_PhyExit	16	static
nand_for_uboot.c:130:27:NAND_Uboot_Erase	16	static
nand_for_uboot.c:136:27:NAND_UbootProbe	16	static
nand_for_uboot.c:142:27:NAND_GetParam_store	16	static
nand_for_uboot.c:149:27:NAND_FlushCache	16	static
nand_for_uboot.c:155:27:nand_secure_storage_write	16	static
nand_for_uboot.c:163:27:nand_secure_storage_read	16	static
nand_for_uboot.c:171:27:NAND_Uboot_Force_Erase	16	static
nand_for_uboot.c:177:30:get_nftl_cap	16	static
nand_for_uboot.c:183:5:nand_get_mbr	48	static
nand_for_uboot.c:243:5:nand_uboot_init	32	static
nand_for_uboot.c:257:5:nand_uboot_init_force_sprite	16	static
nand_for_uboot.c:263:5:nand_uboot_exit	16	static
nand_for_uboot.c:285:5:nand_uboot_probe	0	static
nand_for_uboot.c:291:6:nand_uboot_read_history	16	static
nand_for_uboot.c:301:6:nand_uboot_read	16	static
nand_for_uboot.c:311:6:nand_uboot_write	16	static
nand_for_uboot.c:320:5:nand_download_boot0	32	static
nand_for_uboot.c:339:5:nand_read_boot0	0	static
nand_for_uboot.c:345:5:nand_write_boot0	32	static
nand_for_uboot.c:359:5:nand_download_uboot	32	static
nand_for_uboot.c:379:5:nand_force_download_uboot	32	static
nand_for_uboot.c:392:5:nand_uboot_erase	0	static
nand_for_uboot.c:398:6:nand_uboot_get_flash_info	0	static
nand_for_uboot.c:403:6:nand_uboot_set_flash_info	0	static
nand_for_uboot.c:408:6:nand_uboot_get_flash_size	0	static
nand_for_uboot.c:413:5:nand_uboot_flush	0	static
