system.h:21:28:local_irq_save	0	static
system.h:29:28:local_irq_enable	0	static
system.h:37:28:local_irq_disable	0	static
system.h:45:28:__stf	0	static
system.h:53:28:__clf	0	static
system.h:61:28:local_save_flags	0	static
system.h:69:28:local_irq_restore	0	static
efex_queue.c:33:5:efex_queue_init	32	static
efex_queue.c:63:5:efex_queue_exit	16	static
efex_queue.c:74:5:efex_queue_write_one_page	16	static
efex_queue.c:93:5:efex_queue_write_all_page	16	static
efex_queue.c:115:5:efex_save_buff_to_queue	96	static
