disp_display.c:599:6:disp_tasklet	32	static
disp_display.c:438:5:bsp_disp_shadow_protect	48	static
system.h:21:28:local_irq_save	0	static
system.h:29:28:local_irq_enable	0	static
system.h:37:28:local_irq_disable	0	static
system.h:45:28:__stf	0	static
system.h:53:28:__clf	0	static
system.h:61:28:local_save_flags	0	static
system.h:69:28:local_irq_restore	0	static
disp_display.c:71:5:bsp_disp_exit	0	static
disp_display.c:87:5:bsp_disp_open	0	static
disp_display.c:92:5:bsp_disp_close	0	static
disp_display.c:97:5:disp_device_attached	64	static
disp_display.c:132:5:disp_device_attached_and_enable	32	static
disp_display.c:216:5:disp_device_detach	48	static
disp_display.c:243:5:bsp_disp_device_switch	96	static
disp_display.c:273:5:bsp_disp_device_set_config	48	static
disp_display.c:307:5:disp_init_connections	64	static
disp_display.c:384:5:bsp_disp_sync_with_hw	64	static
disp_display.c:487:5:bsp_disp_vsync_event_enable	0	static
disp_display.c:516:5:bsp_disp_get_fps	0	static
disp_display.c:544:5:bsp_disp_get_health_info	16	static
disp_display.c:552:6:sync_event_proc	64	static
disp_display.c:585:5:bsp_disp_get_output_type	16	static
disp_display.c:720:5:bsp_disp_set_print_level	0	static
disp_display.c:20:5:bsp_disp_init	48	static
disp_display.c:727:5:bsp_disp_get_print_level	0	static
disp_display.c:732:5:bsp_disp_get_screen_physical_width	32	static
disp_display.c:745:5:bsp_disp_get_screen_physical_height	32	static
disp_display.c:758:5:bsp_disp_get_screen_width	0	static
disp_display.c:765:5:bsp_disp_get_screen_height	0	static
disp_display.c:773:5:bsp_disp_get_screen_width_from_output_type	32	static
disp_display.c:889:5:bsp_disp_get_screen_height_from_output_type	32	static
disp_display.c:1005:5:bsp_disp_set_hdmi_func	48	static
disp_display.c:1035:5:bsp_disp_set_edp_func	48	static
disp_display.c:1066:5:bsp_disp_hdmi_get_support_mode	32	static
disp_display.c:1085:5:bsp_disp_hdmi_get_work_mode	32	static
disp_display.c:1104:5:bsp_disp_hdmi_check_support_mode	32	static
disp_display.c:1123:5:bsp_disp_hdmi_get_hpd_status	32	static
disp_display.c:1142:5:bsp_disp_tv_get_hpd_status	32	static
disp_display.c:1161:5:bsp_disp_hdmi_set_detect	32	static
disp_display.c:1181:5:bsp_disp_hdmi_get_color_format	32	static
disp_display.c:1202:5:bsp_disp_tv_set_hpd	0	static
disp_display.c:1232:5:bsp_disp_tv_register	0	static
disp_display.c:1272:16:bsp_disp_lcd_get_open_flow	16	static
disp_display.c:1284:16:bsp_disp_lcd_get_close_flow	16	static
disp_display.c:1296:5:bsp_disp_lcd_set_panel_funs	64	static
disp_display.c:1331:6:LCD_OPEN_FUNC	32	static
disp_display.c:1342:6:LCD_CLOSE_FUNC	32	static
disp_display.c:1353:5:bsp_disp_get_lcd_registered	0	static
disp_display.c:1358:5:bsp_disp_get_hdmi_registered	0	static
disp_display.c:1363:5:bsp_disp_get_tv_registered	0	static
disp_display.c:1368:5:bsp_disp_lcd_backlight_enable	16	static
disp_display.c:1384:5:bsp_disp_lcd_backlight_disable	16	static
disp_display.c:1400:5:bsp_disp_lcd_pwm_enable	16	static
disp_display.c:1416:5:bsp_disp_lcd_pwm_disable	16	static
disp_display.c:1432:5:bsp_disp_lcd_power_enable	32	static
disp_display.c:1448:5:bsp_disp_lcd_power_disable	32	static
disp_display.c:1464:5:bsp_disp_lcd_switch_compat_panel	32	static
disp_display.c:1480:5:bsp_disp_lcd_set_bright	32	static
disp_display.c:1496:5:bsp_disp_lcd_get_bright	16	static
disp_display.c:1508:5:bsp_disp_lcd_tcon_enable	32	static
disp_display.c:1553:5:bsp_disp_lcd_tcon_disable	32	static
disp_display.c:1593:5:bsp_disp_lcd_pin_cfg	32	static
disp_display.c:1605:5:bsp_disp_lcd_gpio_set_value	32	static
disp_display.c:1617:5:bsp_disp_lcd_gpio_set_direction	32	static
disp_display.c:1629:5:bsp_disp_get_panel_info	32	static
disp_display.c:1643:5:bsp_disp_get_fb_info	0	static
disp_display.c:1648:5:bsp_disp_get_display_size	0	static
disp_display.c:1661:5:bsp_disp_lcd_dsi_mode_switch	64	static
disp_display.c:1689:5:bsp_disp_lcd_dsi_clk_enable	48	static
disp_display.c:1716:5:bsp_disp_lcd_dsi_dcs_wr	64	static
disp_display.c:1745:5:bsp_disp_lcd_dsi_gen_wr	64	static
disp_display.c:1774:5:bsp_disp_lcd_dsi_gen_short_read	16	static
disp_display.c:1788:5:bsp_disp_lcd_dsi_dcs_read	16	static
disp_display.c:1801:5:bsp_disp_lcd_set_max_ret_size	0	static
