system.h:21:28:local_irq_save	0	static
system.h:29:28:local_irq_enable	0	static
system.h:37:28:local_irq_disable	0	static
system.h:45:28:__stf	0	static
system.h:53:28:__clf	0	static
system.h:61:28:local_save_flags	0	static
system.h:69:28:local_irq_restore	0	static
sprite_main.c:36:6:__dump_dlmap	128	static
sprite_main.c:68:6:__dump_mbr	128	static
sprite_main.c:112:5:sunxi_card_sprite_main	80	static
