sprite_download.c:58:13:dump_dram_para.constprop	48	static
system.h:21:28:local_irq_save	0	static
system.h:29:28:local_irq_enable	0	static
system.h:37:28:local_irq_disable	0	static
system.h:45:28:__stf	0	static
system.h:53:28:__clf	0	static
system.h:61:28:local_save_flags	0	static
system.h:69:28:local_irq_restore	0	static
sprite_download.c:160:5:sunxi_sprite_download_uboot	32	static
sprite_download.c:212:5:download_secure_boot0	48	static
sprite_download.c:322:5:download_normal_boot0	48	static
sprite_download.c:405:5:sunxi_sprite_download_boot0	0	static
sprite_download.c:418:5:gpt_convert_to_sunxi_mbr	112	static
sprite_download.c:532:6:sunxi_get_logical_offset_param	32	static
sprite_download.c:555:5:sunxi_mbr_convert_to_gpt	208	static
sprite_download.c:694:5:download_standard_gpt	48	static
sprite_download.c:121:5:sunxi_sprite_download_mbr	48	static
