k101im2qa04.c:480:12:lcd_user_defined_func	0	static
k101im2qa04.c:95:12:lcd_close_flow	16	static
k101im2qa04.c:119:13:lcd_power_off	16	static
k101im2qa04.c:471:13:lcd_panel_exit	16	static
k101im2qa04.c:465:13:lcd_panel_init2	0	static
k101im2qa04.c:135:13:lcd_bl_close	16	static
k101im2qa04.c:84:12:lcd_open_flow	16	static
k101im2qa04.c:129:13:lcd_bl_open	16	static
k101im2qa04.c:141:13:lcd_panel_init1	16	static
k101im2qa04.c:105:13:lcd_power_on	16	static
k101im2qa04.c:23:13:lcd_cfg_panel_info	176	static
system.h:21:28:local_irq_save	0	static
system.h:29:28:local_irq_enable	0	static
system.h:37:28:local_irq_disable	0	static
system.h:45:28:__stf	0	static
system.h:53:28:__clf	0	static
system.h:61:28:local_save_flags	0	static
system.h:69:28:local_irq_restore	0	static
