system.h:21:28:local_irq_save	0	static
system.h:29:28:local_irq_enable	0	static
system.h:37:28:local_irq_disable	0	static
system.h:45:28:__stf	0	static
system.h:53:28:__clf	0	static
system.h:61:28:local_save_flags	0	static
system.h:69:28:local_irq_restore	0	static
fdt_fixup.c:24:5:riscv_fdt_copy_resv_mem_node	192	static
fdt_fixup.c:92:5:riscv_board_reserved_mem_fixup	16	static
fdt_fixup.c:120:5:arch_fixup_fdt	32	static
