part.c:29:28:part_driver_lookup_type	32	static
system.h:21:28:local_irq_save	0	static
system.h:29:28:local_irq_enable	0	static
system.h:37:28:local_irq_disable	0	static
system.h:45:28:__stf	0	static
system.h:53:28:__clf	0	static
system.h:61:28:local_save_flags	0	static
system.h:69:28:local_irq_restore	0	static
part.c:79:18:blk_get_dev	16	static
part.c:122:6:dev_print	16	static
part.c:230:6:part_init	32	static
part.c:297:6:part_print	32	static
part.c:317:5:part_get_info	48	static
part.c:365:5:part_init_info_map	48	static
part.c:380:5:part_get_info_whole_disk	16	static
part.c:398:5:blk_get_device_by_str	96	static
part.c:459:5:blk_get_device_part_str	224	static
part.c:675:5:part_get_info_by_name_type	64	static
part.c:700:5:part_get_info_by_name	0	static
part.c:706:6:part_set_generic_name	0	static
