fdt_wip.c:58:5:fdt_setprop_inplace_namelen_partial	48	static
fdt_wip.c:78:5:fdt_setprop_inplace	80	static
fdt_wip.c:104:5:fdt_nop_property	32	static
fdt_wip.c:118:5:_fdt_node_end_offset	48	static
fdt_wip.c:128:5:fdt_nop_node	32	static
