fat.c:29:13:downcase	0	static
fat.c:44:12:disk_read	16	static
fat.c:161:14:get_fatent	32	static
fat.c:763:19:next_dent	32	static
fat.c:246:1:get_cluster	80	dynamic
fat.c:480:1:read_bootsectandvi	48	static
fat.c:661:12:fat_itr_root	128	static
fat.c:834:12:fat_itr_next	112	static
fat.c:907:12:fat_itr_resolve	80	static
system.h:21:28:local_irq_save	0	static
system.h:29:28:local_irq_enable	0	static
system.h:37:28:local_irq_disable	0	static
system.h:45:28:__stf	0	static
system.h:53:28:__clf	0	static
system.h:61:28:local_save_flags	0	static
system.h:69:28:local_irq_restore	0	static
fat.c:59:5:fat_set_blk_dev	32	dynamic
fat.c:88:5:fat_register_device	176	static
fat.c:962:5:file_fat_detectfs	160	static
fat.c:1027:5:fat_exists	80	static
fat.c:1047:5:fat_size	96	static
fat.c:1083:5:file_fat_read_at	176	static
fat.c:1111:5:file_fat_read	32	static
fat.c:1123:5:fat_read_file	32	static
fat.c:1142:5:fat_opendir	48	static
fat.c:1170:5:fat_readdir	32	static
fat.c:1193:6:fat_closedir	16	static
fat.c:1200:6:fat_close	0	static
