LzmaDec.c:454:26:LzmaDec_WriteRem	0	static
LzmaDec.c:480:25:LzmaDec_DecodeReal2	224	static
LzmaDec.c:513:19:LzmaDec_TryDummy	0	static
system.h:21:28:local_irq_save	0	static
system.h:29:28:local_irq_enable	0	static
system.h:37:28:local_irq_disable	0	static
system.h:45:28:__stf	0	static
system.h:53:28:__clf	0	static
system.h:61:28:local_save_flags	0	static
system.h:69:28:local_irq_restore	0	static
LzmaDec.c:711:6:LzmaDec_InitDicAndState	0	static
LzmaDec.c:727:6:LzmaDec_Init	0	static
LzmaDec.c:745:6:LzmaDec_DecodeToDic	128	static
LzmaDec.c:866:6:LzmaDec_DecodeToBuf	144	static
LzmaDec.c:906:6:LzmaDec_FreeProbs	16	static
LzmaDec.c:950:13:LzmaDec_AllocateProbs2	32	static
LzmaDec.c:918:6:LzmaDec_Free	32	static
LzmaDec.c:924:6:LzmaProps_Decode	0	static
LzmaDec.c:964:6:LzmaDec_AllocateProbs	64	static
LzmaDec.c:973:6:LzmaDec_Allocate	48	static
LzmaDec.c:995:6:LzmaDecode	240	static
