io.c:311:13:erase_callback	0	static
io.c:661:12:validate_ec_hdr	32	static
io.c:870:12:validate_vid_hdr	32	static
io.c:1147:12:self_check_ec_hdr.part.0	32	static
io.c:1230:12:self_check_vid_hdr.part.1	32	static
system.h:21:28:local_irq_save	0	static
system.h:29:28:local_irq_enable	0	static
system.h:37:28:local_irq_disable	0	static
system.h:45:28:__stf	0	static
system.h:53:28:__clf	0	static
system.h:61:28:local_save_flags	0	static
system.h:69:28:local_irq_restore	0	static
io.c:603:5:ubi_io_is_bad	48	static
io.c:1122:12:self_check_not_bad.part.2	48	static
io.c:119:5:ubi_io_read	160	static
io.c:1185:12:self_check_peb_ec_hdr.part.4	48	static
io.c:632:5:ubi_io_mark_bad	48	static
io.c:725:5:ubi_io_read_ec_hdr	64	static
io.c:998:5:ubi_io_read_vid_hdr	64	static
io.c:1387:5:ubi_self_check_all_ff	96	static
io.c:228:5:ubi_io_write	128	static
io.c:834:5:ubi_io_write_ec_hdr	48	static
io.c:1082:5:ubi_io_write_vid_hdr	32	static
io.c:325:12:do_sync_erase.part.6	224	static
io.c:561:5:ubi_io_sync_erase	224	static
