input.c:509:12:_input_send_keycodes	128	dynamic
system.h:21:28:local_irq_save	0	static
system.h:29:28:local_irq_enable	0	static
system.h:37:28:local_irq_disable	0	static
system.h:45:28:__stf	0	static
system.h:53:28:__clf	0	static
system.h:61:28:local_save_flags	0	static
system.h:69:28:local_irq_restore	0	static
input.c:205:5:input_tstc	16	static
input.c:214:5:input_getc	16	static
input.c:548:5:input_send_keycodes	0	static
input.c:554:5:input_add_keycode	48	static
input.c:583:5:input_add_table	0	static
input.c:602:6:input_set_delays	0	static
input.c:609:6:input_allow_repeats	0	static
input.c:614:5:input_leds_changed	0	static
input.c:622:5:input_add_tables	32	static
input.c:642:5:input_init	32	static
input.c:650:5:input_stdio_register	16	static
