lh_retrieve.c:14:21:getrn	80	static
system.h:21:28:local_irq_save	0	static
system.h:29:28:local_irq_enable	0	static
system.h:37:28:local_irq_disable	0	static
system.h:45:28:__stf	0	static
system.h:53:28:__clf	0	static
system.h:61:28:local_save_flags	0	static
system.h:69:28:local_irq_restore	0	static
lh_retrieve.c:59:7:lh_retrieve	32	static
lh_retrieve.c:80:7:lh_insert	48	static
lh_retrieve.c:116:8:lh_new	32	static
