system.h:21:28:local_irq_save	0	static
system.h:29:28:local_irq_enable	0	static
system.h:37:28:local_irq_disable	0	static
system.h:45:28:__stf	0	static
system.h:53:28:__clf	0	static
system.h:61:28:local_save_flags	0	static
system.h:69:28:local_irq_restore	0	static
bn_word.c:27:9:BN_new	16	static
bn_word.c:102:9:bn_expand2	32	static
bn_word.c:121:5:BN_num_bits_word	0	static
bn_word.c:179:5:BN_num_bits	16	static
bn_word.c:189:10:BN_div_word	64	static
bn_word.c:260:5:BN_sub_word	32	static
bn_word.c:224:5:BN_add_word	48	static
