system.h:21:28:local_irq_save	0	static
system.h:29:28:local_irq_enable	0	static
system.h:37:28:local_irq_disable	0	static
system.h:45:28:__stf	0	static
system.h:53:28:__clf	0	static
system.h:61:28:local_save_flags	0	static
system.h:69:28:local_irq_restore	0	static
crc32.c:179:18:crc32_no_comp	0	static
crc32.c:221:18:crc32	16	static
crc32.c:230:18:crc32_wd	0	static
crc32.c:255:6:crc32_wd_buf	32	static
