system.h:21:28:local_irq_save	0	static
system.h:29:28:local_irq_enable	0	static
system.h:37:28:local_irq_disable	0	static
system.h:45:28:__stf	0	static
system.h:53:28:__clf	0	static
system.h:61:28:local_save_flags	0	static
system.h:69:28:local_irq_restore	0	static
fdtdec_common.c:21:5:fdtdec_get_int	32	static
fdtdec_common.c:39:14:fdtdec_get_uint	32	static
