system.h:21:28:local_irq_save	0	static
system.h:29:28:local_irq_enable	0	static
system.h:37:28:local_irq_disable	0	static
system.h:45:28:__stf	0	static
system.h:53:28:__clf	0	static
system.h:61:28:local_save_flags	0	static
system.h:69:28:local_irq_restore	0	static
env.c:124:26:env_get_location	0	static
env.c:156:27:env_driver_lookup	16	static
env.c:174:12:env_get_char_spec	0	static
env.c:179:5:env_get_char	0	static
env.c:187:5:env_load	64	static
env.c:215:5:env_save	64	static
env.c:243:5:env_init	32	static
