log.h:360:19:log_init	0	static
board_f.c:124:12:display_text_info	0	static
board_f.c:220:12:setup_mon_len	0	static
board_f.c:245:12:arch_cpu_init	0	static
board_f.c:328:12:reserve_round_4k	0	static
board_f.c:405:12:reserve_uboot	0	static
board_f.c:427:12:reserve_malloc	0	static
board_f.c:456:12:reserve_global_data	0	static
board_f.c:179:12:dram_init_banksize	16	static
board_f.c:705:12:jump_to_copy	16	static
board_f.c:632:12:reloc_fdt	16	static
board_f.c:664:12:setup_reloc	16	static
board_f.c:145:12:announce_dram_init	16	static
board_f.c:493:12:reserve_fdt	16	static
board_f.c:436:12:reserve_board	16	static
board_f.c:118:12:init_baud_rate	16	static
board_f.c:735:12:initf_bootstage	16	static
board_f.c:795:12:arch_cpu_init_dm	0	static
board_f.c:250:12:mach_cpu_init	0	static
board_f.c:362:12:reserve_video	0	static
board_f.c:393:12:reserve_trace	0	static
board_f.c:448:12:setup_machine	0	static
board_f.c:526:12:reserve_bootstage	0	static
board_f.c:558:12:display_new_sp	0	static
board_f.c:646:12:reloc_bootstage	0	static
board_f.c:760:12:initf_console_record	0	static
board_f.c:769:12:initf_dm	0	static
board_f.c:790:12:reserve_arch	0	static
system.h:21:28:local_irq_save	0	static
system.h:29:28:local_irq_enable	0	static
system.h:37:28:local_irq_disable	0	static
system.h:45:28:__stf	0	static
system.h:53:28:__clf	0	static
system.h:61:28:local_save_flags	0	static
system.h:69:28:local_irq_restore	0	static
board_f.c:68:13:coloured_LED_init	0	static
board_f.c:69:13:red_led_on	0	static
board_f.c:70:13:red_led_off	0	static
board_f.c:71:13:green_led_on	0	static
board_f.c:72:13:green_led_off	0	static
board_f.c:73:13:yellow_led_on	0	static
board_f.c:74:13:yellow_led_off	0	static
board_f.c:75:13:blue_led_on	0	static
board_f.c:76:13:blue_led_off	0	static
board_f.c:113:13:board_add_ram_info	0	static
board_f.c:151:12:show_dram_config	16	static
board_f.c:256:14:board_get_usable_ram_top	0	static
board_f.c:273:12:setup_dest_addr	16	static
board_f.c:540:12:arch_reserve_stacks	0	static
board_f.c:545:12:reserve_stacks	0	static
board_f.c:946:6:board_init_f	16	static
