image-fdt.c:28:13:fdt_error	16	static
system.h:21:28:local_irq_save	0	static
system.h:29:28:local_irq_enable	0	static
system.h:37:28:local_irq_disable	0	static
system.h:45:28:__stf	0	static
system.h:53:28:__clf	0	static
system.h:61:28:local_save_flags	0	static
system.h:69:28:local_irq_restore	0	static
image-fdt.c:79:6:boot_fdt_add_mem_rsv_regions	80	static
image-fdt.c:114:5:boot_relocate_fdt	80	static
image-fdt.c:225:5:boot_get_fdt	96	static
image-fdt.c:454:12:ft_verify_fdt	0	static
image-fdt.c:459:12:arch_fixup_fdt	0	static
image-fdt.c:464:5:image_setup_libfdt	48	static
